{
  "service": {
    "id": "mysql",
    "name": "mysql",
    "tags": ["${tag}"],
    "port": 3306,
    "checks": [
      {
        "tcp": "localhost:3306",
        "interval": "10s",
        "timeout": "2s"
      }
    ]
  }
}
