{
  "ca_file": "/etc/tls/ca.pem",
  "key_file": "/etc/tls/key.pem",
  "cert_file": "/etc/tls/cert.pem",
  "verify_incoming": true,
  "verify_outgoing": true,
  "verify_server_hostname": true,
  "auto_encrypt": {
    "allow_tls": true
  }
}
